{
  "systems/n5e/icons/esoteric/air-burst-air-1.jpg": "icons/esoteric/air/wind-tornado-spiral-brown.webp",
  "systems/n5e/icons/esoteric/air-burst-air-2.jpg": "icons/esoteric/air/air-burst-spiral-yellow.webp",
  "systems/n5e/icons/esoteric/air-burst-air-3.jpg": "icons/esoteric/air/air-burst-spiral-large-yellow.webp",
  "systems/n5e/icons/esoteric/air-burst-jade-1.jpg": "icons/esoteric/air/wind-tornado-spiral-teal-green.webp",
  "systems/n5e/icons/esoteric/air-burst-jade-2.jpg": "icons/esoteric/air/air-burst-spiral-teal-green.webp",
  "systems/n5e/icons/esoteric/air-burst-jade-3.jpg": "icons/esoteric/air/air-burst-spiral-large-teal-green.webp",
  "systems/n5e/icons/esoteric/air-burst-magenta-1.jpg": "icons/esoteric/air/wind-tornado-spiral-pink-purple.webp",
  "systems/n5e/icons/esoteric/air-burst-magenta-2.jpg": "icons/esoteric/air/air-burst-spiral-pink.webp",
  "systems/n5e/icons/esoteric/air-burst-magenta-3.jpg": "icons/esoteric/air/air-burst-spiral-large-pink.webp",
  "systems/n5e/icons/esoteric/air-burst-sky-1.jpg": "icons/esoteric/air/wind-tornado-spiral-blue-gray.webp",
  "systems/n5e/icons/esoteric/air-burst-sky-2.jpg": "icons/esoteric/air/air-burst-spiral-blue-gray.webp",
  "systems/n5e/icons/esoteric/air-burst-sky-3.jpg": "icons/esoteric/air/air-burst-spiral-large-blue.webp",
  "systems/n5e/icons/esoteric/beam-acid-1.jpg": "icons/esoteric/light/beam-rays-green-small.webp",
  "systems/n5e/icons/esoteric/beam-acid-2.jpg": "icons/esoteric/light/beam-rays-green.webp",
  "systems/n5e/icons/esoteric/beam-acid-3.jpg": "icons/esoteric/light/beam-rays-green-large.webp",
  "systems/n5e/icons/esoteric/beam-blue-1.jpg": "icons/esoteric/light/beam-rays-blue-small.webp",
  "systems/n5e/icons/esoteric/beam-blue-2.jpg": "icons/esoteric/light/beam-rays-blue.webp",
  "systems/n5e/icons/esoteric/beam-blue-3.jpg": "icons/esoteric/light/beam-rays-blue-large.webp",
  "systems/n5e/icons/esoteric/beam-eerie-1.jpg": "icons/esoteric/light/beam-rays-teal-purple-small.webp",
  "systems/n5e/icons/esoteric/beam-eerie-2.jpg": "icons/esoteric/light/beam-rays-teal-purple.webp",
  "systems/n5e/icons/esoteric/beam-eerie-3.jpg": "icons/esoteric/light/beam-rays-teal-purple-large.webp",
  "systems/n5e/icons/esoteric/beam-jade-1.jpg": "icons/esoteric/light/beam-rays-teal-small.webp",
  "systems/n5e/icons/esoteric/beam-jade-2.jpg": "icons/esoteric/light/beam-rays-teal.webp",
  "systems/n5e/icons/esoteric/beam-jade-3.jpg": "icons/esoteric/light/beam-rays-teal-large.webp",
  "systems/n5e/icons/esoteric/beam-magenta-1.jpg": "icons/esoteric/light/beam-rays-magenta-small.webp",
  "systems/n5e/icons/esoteric/beam-magenta-2.jpg": "icons/esoteric/light/beam-rays-magenta.webp",
  "systems/n5e/icons/esoteric/beam-magenta-3.jpg": "icons/esoteric/light/beam-rays-magenta-large.webp",
  "systems/n5e/icons/esoteric/beam-orange-1.jpg": "icons/esoteric/light/beam-rays-orange-small.webp",
  "systems/n5e/icons/esoteric/beam-orange-2.jpg": "icons/esoteric/light/beam-rays-orange.webp",
  "systems/n5e/icons/esoteric/beam-orange-3.jpg": "icons/esoteric/light/beam-rays-orange-large.webp",
  "systems/n5e/icons/esoteric/beam-red-1.jpg": "icons/esoteric/light/beam-rays-red-small.webp",
  "systems/n5e/icons/esoteric/beam-red-2.jpg": "icons/esoteric/light/beam-rays-red.webp",
  "systems/n5e/icons/esoteric/beam-red-3.jpg": "icons/esoteric/light/beam-rays-red-large.webp",
  "systems/n5e/icons/esoteric/beam-royal-1.jpg": "icons/esoteric/light/beams-rays-orange-purple-small.webp",
  "systems/n5e/icons/esoteric/beam-royal-2.jpg": "icons/esoteric/light/beams-rays-orange-purple.webp",
  "systems/n5e/icons/esoteric/beam-royal-3.jpg": "icons/esoteric/light/beams-rays-orange-purple-large.webp",
  "systems/n5e/icons/esoteric/beam-sky-1.jpg": "icons/esoteric/light/beam-rays-yellow-blue-small.webp",
  "systems/n5e/icons/esoteric/beam-sky-2.jpg": "icons/esoteric/light/beam-rays-yellow-blue.webp",
  "systems/n5e/icons/esoteric/beam-sky-3.jpg": "icons/esoteric/light/beam-rays-yellow-blue-large.webp",
  "systems/n5e/icons/esoteric/enchant-acid-1.jpg": "icons/esoteric/fire/dagger-rune-enchant-green.webp",
  "systems/n5e/icons/esoteric/enchant-acid-2.jpg": "icons/esoteric/fire/dagger-rune-enchant-flame-green.webp",
  "systems/n5e/icons/esoteric/enchant-acid-3.jpg": "icons/esoteric/fire/dagger-rune-enchant-flame-strong-green.webp",
  "systems/n5e/icons/esoteric/enchant-blue-1.jpg": "icons/esoteric/fire/dagger-rune-enchant-blue.webp",
  "systems/n5e/icons/esoteric/enchant-blue-2.jpg": "icons/esoteric/fire/dagger-rune-enchant-flame-blue.webp",
  "systems/n5e/icons/esoteric/enchant-blue-3.jpg": "icons/esoteric/fire/dagger-rune-enchant-flame-strong-blue.webp",
  "systems/n5e/icons/esoteric/enchant-eerie-1.jpg": "icons/esoteric/fire/dagger-rune-enchant-teal-purple.webp",
  "systems/n5e/icons/esoteric/enchant-eerie-2.jpg": "icons/esoteric/fire/dagger-rune-enchant-flame-teal-purple.webp",
  "systems/n5e/icons/esoteric/enchant-eerie-3.jpg": "icons/esoteric/fire/dagger-rune-enchant-flame-strong-teal-purple.webp",
  "systems/n5e/icons/esoteric/enchant-jade-1.jpg": "icons/esoteric/fire/dagger-rune-enchant-teal.webp",
  "systems/n5e/icons/esoteric/enchant-jade-2.jpg": "icons/esoteric/fire/dagger-rune-enchant-flame-teal.webp",
  "systems/n5e/icons/esoteric/enchant-jade-3.jpg": "icons/esoteric/fire/dagger-rune-enchant-flame-strong-teal.webp",
  "systems/n5e/icons/esoteric/enchant-magenta-1.jpg": "icons/esoteric/fire/dagger-rune-enchant-purple.webp",
  "systems/n5e/icons/esoteric/enchant-magenta-2.jpg": "icons/esoteric/fire/dagger-rune-enchant-flame-purple.webp",
  "systems/n5e/icons/esoteric/enchant-magenta-3.jpg": "icons/esoteric/fire/dagger-rune-enchant-flame-strong-purple-pink.webp",
  "systems/n5e/icons/esoteric/enchant-orange-1.jpg": "icons/esoteric/fire/dagger-rune-enchant-orange.webp",
  "systems/n5e/icons/esoteric/enchant-orange-2.jpg": "icons/esoteric/fire/dagger-rune-enchant-flame-orange.webp",
  "systems/n5e/icons/esoteric/enchant-orange-3.jpg": "icons/esoteric/fire/dagger-rune-enchant-flame-strong-orange.webp",
  "systems/n5e/icons/esoteric/enchant-red-1.jpg": "icons/esoteric/fire/dagger-rune-enchant-red.webp",
  "systems/n5e/icons/esoteric/enchant-red-2.jpg": "icons/esoteric/fire/dagger-rune-enchant-flame-red.webp",
  "systems/n5e/icons/esoteric/enchant-red-3.jpg": "icons/esoteric/fire/dagger-rune-enchant-flame-strong-red.webp",
  "systems/n5e/icons/esoteric/enchant-royal-1.jpg": "icons/esoteric/fire/dagger-rune-enchant-purple-orange.webp",
  "systems/n5e/icons/esoteric/enchant-royal-2.jpg": "icons/esoteric/fire/dagger-rune-enchant-flame-purple-orange.webp",
  "systems/n5e/icons/esoteric/enchant-royal-3.jpg": "icons/esoteric/fire/dagger-rune-enchant-flame-strong-purple.webp",
  "systems/n5e/icons/esoteric/enchant-sky-1.jpg": "icons/esoteric/fire/dagger-rune-enchant-blue-gray.webp",
  "systems/n5e/icons/esoteric/enchant-sky-2.jpg": "icons/esoteric/fire/dagger-rune-enchant-flame-blue-yellow.webp",
  "systems/n5e/icons/esoteric/enchant-sky-3.jpg": "icons/esoteric/fire/dagger-rune-enchant-flame-strong-blue-yellow.webp",
  "systems/n5e/icons/esoteric/evil-eye-eerie-1.jpg": "icons/esoteric/perception/eye-ringed-glow-angry-small-teal.webp",
  "systems/n5e/icons/esoteric/evil-eye-eerie-2.jpg": "icons/esoteric/perception/eye-ringed-glow-angry-teal.webp",
  "systems/n5e/icons/esoteric/evil-eye-eerie-3.jpg": "icons/esoteric/perception/eye-ringed-glow-angry-large-teal.webp",
  "systems/n5e/icons/esoteric/evil-eye-red-1.jpg": "icons/esoteric/perception/eye-ringed-glow-angry-small-red.webp",
  "systems/n5e/icons/esoteric/evil-eye-red-2.jpg": "icons/esoteric/perception/eye-ringed-glow-angry-red.webp",
  "systems/n5e/icons/esoteric/evil-eye-red-3.jpg": "icons/esoteric/perception/eye-ringed-glow-angry-large-red.webp",
  "systems/n5e/icons/esoteric/explosion-magenta-1.jpg": "icons/esoteric/fire/explosion-fireball-small-purple.webp",
  "systems/n5e/icons/esoteric/explosion-magenta-2.jpg": "icons/esoteric/fire/explosion-fireball-medium-purple-pink.webp",
  "systems/n5e/icons/esoteric/explosion-magenta-3.jpg": "icons/esoteric/fire/explosion-fireball-large-purple-pink.webp",
  "systems/n5e/icons/esoteric/explosion-orange-1.jpg": "icons/esoteric/fire/explosion-fireball-small-orange.webp",
  "systems/n5e/icons/esoteric/explosion-orange-2.jpg": "icons/esoteric/fire/explosion-fireball-medium-orange.webp",
  "systems/n5e/icons/esoteric/explosion-orange-3.jpg": "icons/esoteric/fire/explosion-fireball-large-orange.webp",
  "systems/n5e/icons/esoteric/explosion-red-1.jpg": "icons/esoteric/fire/explosion-fireball-small-red.webp",
  "systems/n5e/icons/esoteric/explosion-red-2.jpg": "icons/esoteric/fire/explosion-fireball-medium-red-orange.webp",
  "systems/n5e/icons/esoteric/explosion-red-3.jpg": "icons/esoteric/fire/explosion-fireball-large-red-orange.webp",
  "systems/n5e/icons/esoteric/explosion-royal-1.jpg": "icons/esoteric/fire/explosion-fireball-small-purple-orange.webp",
  "systems/n5e/icons/esoteric/explosion-royal-2.jpg": "icons/esoteric/fire/explosion-fireball-medium-purple-orange.webp",
  "systems/n5e/icons/esoteric/explosion-royal-3.jpg": "icons/esoteric/fire/explosion-fireball-large-purple-orange.webp",
  "systems/n5e/icons/esoteric/explosion-sky-1.jpg": "icons/esoteric/fire/explosion-fireball-small-blue.webp",
  "systems/n5e/icons/esoteric/explosion-sky-2.jpg": "icons/esoteric/fire/explosion-fireball-medium-blue.webp",
  "systems/n5e/icons/esoteric/explosion-sky-3.jpg": "icons/esoteric/fire/explosion-fireball-large-blue.webp",
  "systems/n5e/icons/esoteric/fire-arrows-1.jpg": "icons/esoteric/fire/projectile-meteor-salvo-light-red.webp",
  "systems/n5e/icons/esoteric/fire-arrows-2.jpg": "icons/esoteric/fire/projectile-meteor-salvo-strong-red.webp",
  "systems/n5e/icons/esoteric/fire-arrows-3.jpg": "icons/esoteric/fire/projectile-meteor-salvo-heavy-red.webp",
  "systems/n5e/icons/esoteric/fire-arrows-jade-1.jpg": "icons/esoteric/fire/projectile-meteor-salvo-light-teal.webp",
  "systems/n5e/icons/esoteric/fire-arrows-jade-2.jpg": "icons/esoteric/fire/projectile-meteor-salvo-strong-teal.webp",
  "systems/n5e/icons/esoteric/fire-arrows-jade-3.jpg": "icons/esoteric/fire/projectile-meteor-salvo-heavy-teal.webp",
  "systems/n5e/icons/esoteric/fire-arrows-magenta-1.jpg": "icons/esoteric/fire/projectile-meteor-salvo-light-pink.webp",
  "systems/n5e/icons/esoteric/fire-arrows-magenta-2.jpg": "icons/esoteric/fire/projectile-meteor-salvo-strong-pink.webp",
  "systems/n5e/icons/esoteric/fire-arrows-magenta-3.jpg": "icons/esoteric/fire/projectile-meteor-salvo-heavy-pink.webp",
  "systems/n5e/icons/esoteric/fire-arrows-royal-1.jpg": "icons/esoteric/fire/projectile-meteor-salvo-light-purple.webp",
  "systems/n5e/icons/esoteric/fire-arrows-royal-2.jpg": "icons/esoteric/fire/projectile-meteor-salvo-strong-purple-yellow.webp",
  "systems/n5e/icons/esoteric/fire-arrows-royal-3.jpg": "icons/esoteric/fire/projectile-meteor-salvo-heavy-purple-yellow.webp",
  "systems/n5e/icons/esoteric/fire-arrows-sky-1.jpg": "icons/esoteric/fire/projectile-meteor-salvo-light-blue.webp",
  "systems/n5e/icons/esoteric/fire-arrows-sky-2.jpg": "icons/esoteric/fire/projectile-meteor-salvo-strong-blue.webp",
  "systems/n5e/icons/esoteric/fire-arrows-sky-3.jpg": "icons/esoteric/fire/projectile-meteor-salvo-heavy-blue.webp",
  "systems/n5e/icons/esoteric/fireball-acid-1.jpg": "icons/esoteric/fire/projectile-fireball-smoke-green.webp",
  "systems/n5e/icons/esoteric/fireball-acid-2.jpg": "icons/esoteric/fire/projectile-fireball-smoke-large-green.webp",
  "systems/n5e/icons/esoteric/fireball-acid-3.jpg": "icons/esoteric/fire/projectile-fireball-smoke-strong-green.webp",
  "systems/n5e/icons/esoteric/fireball-eerie-1.jpg": "icons/esoteric/fire/projectile-fireball-smoke-teal.webp",
  "systems/n5e/icons/esoteric/fireball-eerie-2.jpg": "icons/esoteric/fire/projectile-fireball-smoke-large-teal.webp",
  "systems/n5e/icons/esoteric/fireball-eerie-3.jpg": "icons/esoteric/fire/projectile-fireball-smoke-strong-teal.webp",
  "systems/n5e/icons/esoteric/fireball-red-1.jpg": "icons/esoteric/fire/projectile-fireball-smoke-orange.webp",
  "systems/n5e/icons/esoteric/fireball-red-2.jpg": "icons/esoteric/fire/projectile-fireball-smoke-large-orange.webp",
  "systems/n5e/icons/esoteric/fireball-red-3.jpg": "icons/esoteric/fire/projectile-fireball-smoke-strong-orange.webp",
  "systems/n5e/icons/esoteric/fireball-sky-1.jpg": "icons/esoteric/fire/projectile-fireball-smoke-blue.webp",
  "systems/n5e/icons/esoteric/fireball-sky-2.jpg": "icons/esoteric/fire/projectile-fireball-smoke-large-blue.webp",
  "systems/n5e/icons/esoteric/fireball-sky-3.jpg": "icons/esoteric/fire/projectile-fireball-smoke-strong-blue.webp",
  "systems/n5e/icons/esoteric/fog-acid-1.jpg": "icons/esoteric/air/fog-gas-smoke-green.webp",
  "systems/n5e/icons/esoteric/fog-acid-2.jpg": "icons/esoteric/air/fog-gas-smoke-dense-green.webp",
  "systems/n5e/icons/esoteric/fog-acid-3.jpg": "icons/esoteric/air/fog-gas-smoke-swirling-green.webp",
  "systems/n5e/icons/esoteric/fog-air-1.jpg": "icons/esoteric/air/fog-gas-smoke-brown.webp",
  "systems/n5e/icons/esoteric/fog-air-2.jpg": "icons/esoteric/air/fog-gas-smoke-dense-brown.webp",
  "systems/n5e/icons/esoteric/fog-air-3.jpg": "icons/esoteric/air/fog-gas-smoke-swirling-yellow.webp",
  "systems/n5e/icons/esoteric/fog-blue-1.jpg": "icons/esoteric/air/fog-gas-smoke-purple-blue.webp",
  "systems/n5e/icons/esoteric/fog-blue-2.jpg": "icons/esoteric/air/fog-gas-smoke-dense-blue.webp",
  "systems/n5e/icons/esoteric/fog-blue-3.jpg": "icons/esoteric/air/fog-gas-smoke-swirling-blue.webp",
  "systems/n5e/icons/esoteric/fog-magenta-1.jpg": "icons/esoteric/air/fog-gas-smoke-purple.webp",
  "systems/n5e/icons/esoteric/fog-magenta-2.jpg": "icons/esoteric/air/fog-gas-smoke-dense-pink.webp",
  "systems/n5e/icons/esoteric/fog-magenta-3.jpg": "icons/esoteric/air/fog-gas-smoke-swirling-pink.webp",
  "systems/n5e/icons/esoteric/fog-orange-1.jpg": "icons/esoteric/air/fog-gas-smoke-orange.webp",
  "systems/n5e/icons/esoteric/fog-orange-2.jpg": "icons/esoteric/air/fog-gas-smoke-dense-orange.webp",
  "systems/n5e/icons/esoteric/fog-orange-3.jpg": "icons/esoteric/air/fog-gas-smoke-swirling-orange.webp",
  "systems/n5e/icons/esoteric/fog-sky-1.jpg": "icons/esoteric/air/fog-gas-smoke-blue-gray.webp",
  "systems/n5e/icons/esoteric/fog-sky-2.jpg": "icons/esoteric/air/fog-gas-smoke-dense-white.webp",
  "systems/n5e/icons/esoteric/fog-sky-3.jpg": "icons/esoteric/air/fog-gas-smoke-swirling-white.webp",
  "systems/n5e/icons/esoteric/fog-water-air-1.jpg": "icons/esoteric/air/fog-gas-smoke-gray.webp",
  "systems/n5e/icons/esoteric/fog-water-air-2.jpg": "icons/esoteric/air/fog-gas-smoke-dense-gray.webp",
  "systems/n5e/icons/esoteric/fog-water-air-3.jpg": "icons/esoteric/air/fog-gas-smoke-swirling-gray.webp",
  "systems/n5e/icons/esoteric/haste-fire-1.jpg": "icons/esoteric/control/buff-flight-wings-red.webp",
  "systems/n5e/icons/esoteric/haste-fire-2.jpg": "icons/esoteric/control/buff-flight-wings-runes-red.webp",
  "systems/n5e/icons/esoteric/haste-fire-3.jpg": "icons/esoteric/control/buff-flight-wings-runes-red-yellow.webp",
  "systems/n5e/icons/esoteric/haste-royal-1.jpg": "icons/esoteric/control/buff-flight-wings-purple.webp",
  "systems/n5e/icons/esoteric/haste-royal-2.jpg": "icons/esoteric/control/buff-flight-wings-runes-purple.webp",
  "systems/n5e/icons/esoteric/haste-royal-3.jpg": "icons/esoteric/control/buff-flight-wings-runes-purple-orange.webp",
  "systems/n5e/icons/esoteric/haste-sky-1.jpg": "icons/esoteric/control/buff-flight-wings-blue.webp",
  "systems/n5e/icons/esoteric/haste-sky-2.jpg": "icons/esoteric/control/buff-flight-wings-runes-blue.webp",
  "systems/n5e/icons/esoteric/haste-sky-3.jpg": "icons/esoteric/control/buff-flight-wings-runes-blue-white.webp",
  "systems/n5e/icons/esoteric/heal-jade-1.jpg": "icons/esoteric/life/heart-cross-green.webp",
  "systems/n5e/icons/esoteric/heal-jade-2.jpg": "icons/esoteric/life/heart-cross-strong-green.webp",
  "systems/n5e/icons/esoteric/heal-jade-3.jpg": "icons/esoteric/life/heart-cross-strong-flame-green.webp",
  "systems/n5e/icons/esoteric/heal-royal-1.jpg": "icons/esoteric/life/heart-cross-purple-orange.webp",
  "systems/n5e/icons/esoteric/heal-royal-2.jpg": "icons/esoteric/life/heart-cross-strong-purple-orange.webp",
  "systems/n5e/icons/esoteric/heal-royal-3.jpg": "icons/esoteric/life/heart-cross-strong-flame-purple-orange.webp",
  "systems/n5e/icons/esoteric/heal-sky-1.jpg": "icons/esoteric/life/heart-cross-blue.webp",
  "systems/n5e/icons/esoteric/heal-sky-2.jpg": "icons/esoteric/life/heart-cross-strong-blue.webp",
  "systems/n5e/icons/esoteric/heal-sky-3.jpg": "icons/esoteric/life/heart-cross-strong-flame-blue.webp",
  "systems/n5e/icons/esoteric/horror-acid-1.jpg": "icons/esoteric/control/fear-fright-shadow-monster-green.webp",
  "systems/n5e/icons/esoteric/horror-acid-2.jpg": "icons/esoteric/control/fear-fright-monster-green.webp",
  "systems/n5e/icons/esoteric/horror-acid-3.jpg": "icons/esoteric/control/fear-fright-monster-grin-green.webp",
  "systems/n5e/icons/esoteric/horror-eerie-1.jpg": "icons/esoteric/control/fear-fright-shadow-monster-purple.webp",
  "systems/n5e/icons/esoteric/horror-eerie-2.jpg": "icons/esoteric/control/fear-fright-monster-purple-blue.webp",
  "systems/n5e/icons/esoteric/horror-eerie-3.jpg": "icons/esoteric/control/fear-fright-monster-grin-purple-blue.webp",
  "systems/n5e/icons/esoteric/horror-red-1.jpg": "icons/esoteric/control/fear-fright-shadow-monster-red.webp",
  "systems/n5e/icons/esoteric/horror-red-2.jpg": "icons/esoteric/control/fear-fright-monster-red.webp",
  "systems/n5e/icons/esoteric/horror-red-3.jpg": "icons/esoteric/control/fear-fright-monster-grin-red-orange.webp",
  "systems/n5e/icons/esoteric/ice-blue-1.jpg": "icons/esoteric/water/projectile-ice-faceted-blue.webp",
  "systems/n5e/icons/esoteric/ice-blue-2.jpg": "icons/esoteric/water/projectiles-ice-faceted-salvo-blue.webp",
  "systems/n5e/icons/esoteric/ice-blue-3.jpg": "icons/esoteric/water/projectiles-ice-faceted-shard-salvo-blue.webp",
  "systems/n5e/icons/esoteric/ice-jade-1.jpg": "icons/esoteric/water/projectile-ice-faceted-teal.webp",
  "systems/n5e/icons/esoteric/ice-jade-2.jpg": "icons/esoteric/water/projectiles-ice-faceted-teal.webp",
  "systems/n5e/icons/esoteric/ice-jade-3.jpg": "icons/esoteric/water/projectiles-ice-faceted-shard-teal.webp",
  "systems/n5e/icons/esoteric/ice-sky-1.jpg": "icons/esoteric/water/projectile-ice-faceted-gray.webp",
  "systems/n5e/icons/esoteric/ice-sky-2.jpg": "icons/esoteric/water/projectiles-ice-faceted-salvo-gray.webp",
  "systems/n5e/icons/esoteric/ice-sky-3.jpg": "icons/esoteric/water/projectiles-ice-faceted-shard-salvo-gray.webp",
  "systems/n5e/icons/esoteric/leaf-acid-1.jpg": "icons/esoteric/nature/leaf-glow-green.webp",
  "systems/n5e/icons/esoteric/leaf-acid-2.jpg": "icons/esoteric/nature/leaf-glow-triple-green.webp",
  "systems/n5e/icons/esoteric/leaf-acid-3.jpg": "icons/esoteric/nature/leaf-glow-maple-green.webp",
  "systems/n5e/icons/esoteric/leaf-jade-1.jpg": "icons/esoteric/nature/leaf-glow-teal.webp",
  "systems/n5e/icons/esoteric/leaf-jade-2.jpg": "icons/esoteric/nature/leaf-glow-triple-teal.webp",
  "systems/n5e/icons/esoteric/leaf-jade-3.jpg": "icons/esoteric/nature/leaf-glow-maple-teal.webp",
  "systems/n5e/icons/esoteric/leaf-orange-1.jpg": "icons/esoteric/nature/leaf-glow-orange.webp",
  "systems/n5e/icons/esoteric/leaf-orange-2.jpg": "icons/esoteric/nature/leaf-glow-triple-orange.webp",
  "systems/n5e/icons/esoteric/leaf-orange-3.jpg": "icons/esoteric/nature/leaf-glow-maple-orange.webp",
  "systems/n5e/icons/esoteric/leaf-royal-1.jpg": "icons/esoteric/nature/leaf-glow-orange-purple.webp",
  "systems/n5e/icons/esoteric/leaf-royal-2.jpg": "icons/esoteric/nature/leaf-glow-triple-orange-purple.webp",
  "systems/n5e/icons/esoteric/leaf-royal-3.jpg": "icons/esoteric/nature/leaf-glow-maple-orange-purple.webp",
  "systems/n5e/icons/esoteric/light-air-fire-1.jpg": "icons/esoteric/light/explosion-star-orange-small.webp",
  "systems/n5e/icons/esoteric/light-air-fire-2.jpg": "icons/esoteric/light/explosion-star-orange.webp",
  "systems/n5e/icons/esoteric/light-air-fire-3.jpg": "icons/esoteric/light/explosion-star-orange-large.webp",
  "systems/n5e/icons/esoteric/light-blue-1.jpg": "icons/esoteric/light/explosion-star-blue-small.webp",
  "systems/n5e/icons/esoteric/light-blue-2.jpg": "icons/esoteric/light/explosion-star-blue.webp",
  "systems/n5e/icons/esoteric/light-blue-3.jpg": "icons/esoteric/light/explosion-star-blue-large.webp",
  "systems/n5e/icons/esoteric/light-eerie-1.jpg": "icons/esoteric/light/explosion-star-teal-purple-small.webp",
  "systems/n5e/icons/esoteric/light-eerie-2.jpg": "icons/esoteric/light/explosion-star-teal-purple.webp",
  "systems/n5e/icons/esoteric/light-eerie-3.jpg": "icons/esoteric/light/explosion-star-teal-purple-large.webp",
  "systems/n5e/icons/esoteric/lighting-acid-1.jpg": "icons/esoteric/lightning/bolt-forked-green.webp",
  "systems/n5e/icons/esoteric/lighting-acid-2.jpg": "icons/esoteric/lightning/bolt-forked-large-green.webp",
  "systems/n5e/icons/esoteric/lighting-acid-3.jpg": "icons/esoteric/lightning/bolts-forked-large-green.webp",
  "systems/n5e/icons/esoteric/lighting-eerie-1.jpg": "icons/esoteric/lightning/bolt-forked-teal-purple.webp",
  "systems/n5e/icons/esoteric/lighting-eerie-2.jpg": "icons/esoteric/lightning/bolt-forked-large-teal-purple.webp",
  "systems/n5e/icons/esoteric/lighting-eerie-3.jpg": "icons/esoteric/lightning/bolts-forked-large-teal-purple.webp",
  "systems/n5e/icons/esoteric/lighting-fire-1.jpg": "icons/esoteric/lightning/bolt-forked-red.webp",
  "systems/n5e/icons/esoteric/lighting-fire-2.jpg": "icons/esoteric/lightning/bolt-forked-large-red.webp",
  "systems/n5e/icons/esoteric/lighting-fire-3.jpg": "icons/esoteric/lightning/bolts-forked-large-red.webp",
  "systems/n5e/icons/esoteric/lighting-royal-1.jpg": "icons/esoteric/lightning/bolt-forked-orange-purple.webp",
  "systems/n5e/icons/esoteric/lighting-royal-2.jpg": "icons/esoteric/lightning/bolt-forked-large-orange-purple.webp",
  "systems/n5e/icons/esoteric/lighting-royal-3.jpg": "icons/esoteric/lightning/bolts-forked-large-orange-purple.webp",
  "systems/n5e/icons/esoteric/lighting-sky-1.jpg": "icons/esoteric/lightning/bolt-forked-blue-yellow.webp",
  "systems/n5e/icons/esoteric/lighting-sky-2.jpg": "icons/esoteric/lightning/bolt-forked-large-blue-yellow.webp",
  "systems/n5e/icons/esoteric/lighting-sky-3.jpg": "icons/esoteric/lightning/bolts-forked-large-blue-yellow.webp",
  "systems/n5e/icons/esoteric/light-jade-1.jpg": "icons/esoteric/light/explosion-star-teal-small.webp",
  "systems/n5e/icons/esoteric/light-jade-2.jpg": "icons/esoteric/light/explosion-star-teal.webp",
  "systems/n5e/icons/esoteric/light-jade-3.jpg": "icons/esoteric/light/explosion-star-teal-large.webp",
  "systems/n5e/icons/esoteric/light-magenta-1.jpg": "icons/esoteric/light/explosion-star-pink-small.webp",
  "systems/n5e/icons/esoteric/light-magenta-2.jpg": "icons/esoteric/light/explosion-star-pink.webp",
  "systems/n5e/icons/esoteric/light-magenta-3.jpg": "icons/esoteric/light/explosion-star-pink-large.webp",
  "systems/n5e/icons/esoteric/lightning-blue-1.jpg": "icons/esoteric/lightning/bolt-forked-blue.webp",
  "systems/n5e/icons/esoteric/lightning-blue-2.jpg": "icons/esoteric/lightning/bolt-forked-large-blue.webp",
  "systems/n5e/icons/esoteric/lightning-blue-3.jpg": "icons/esoteric/lightning/bolts-forked-large-blue.webp",
  "systems/n5e/icons/esoteric/lightning-jade-1.jpg": "icons/esoteric/lightning/bolt-forked-teal.webp",
  "systems/n5e/icons/esoteric/lightning-jade-2.jpg": "icons/esoteric/lightning/bolt-forked-large-teal.webp",
  "systems/n5e/icons/esoteric/lightning-jade-3.jpg": "icons/esoteric/lightning/bolts-forked-large-teal.webp",
  "systems/n5e/icons/esoteric/lightning-magenta-1.jpg": "icons/esoteric/lightning/bolt-forked-magenta.webp",
  "systems/n5e/icons/esoteric/lightning-magenta-2.jpg": "icons/esoteric/lightning/bolt-forked-large-magenta.webp",
  "systems/n5e/icons/esoteric/lightning-magenta-3.jpg": "icons/esoteric/lightning/bolts-forked-large-magenta.webp",
  "systems/n5e/icons/esoteric/lightning-orange-1.jpg": "icons/esoteric/lightning/bolt-forked-orange.webp",
  "systems/n5e/icons/esoteric/lightning-orange-2.jpg": "icons/esoteric/lightning/bolt-forked-large-orange.webp",
  "systems/n5e/icons/esoteric/lightning-orange-3.jpg": "icons/esoteric/lightning/bolts-forked-large-orange.webp",
  "systems/n5e/icons/esoteric/light-royal-1.jpg": "icons/esoteric/light/explosion-star-orange-purple-small.webp",
  "systems/n5e/icons/esoteric/light-royal-2.jpg": "icons/esoteric/light/explosion-star-orange-purple.webp",
  "systems/n5e/icons/esoteric/light-royal-3.jpg": "icons/esoteric/light/explosion-star-orange-purple-large.webp",
  "systems/n5e/icons/esoteric/light-sky-1.jpg": "icons/esoteric/light/explosion-star-blue-yellow-small.webp",
  "systems/n5e/icons/esoteric/light-sky-2.jpg": "icons/esoteric/light/explosion-star-blue-yellow.webp",
  "systems/n5e/icons/esoteric/light-sky-3.jpg": "icons/esoteric/light/explosion-star-blue-yellow-large.webp",
  "systems/n5e/icons/esoteric/link-blue-1.jpg": "icons/esoteric/control/energy-stream-link-blue.webp",
  "systems/n5e/icons/esoteric/link-blue-2.jpg": "icons/esoteric/control/energy-stream-link-large-blue.webp",
  "systems/n5e/icons/esoteric/link-blue-3.jpg": "icons/esoteric/control/energy-stream-link-spiral-blue.webp",
  "systems/n5e/icons/esoteric/link-eerie-1.jpg": "icons/esoteric/control/energy-stream-link-teal.webp",
  "systems/n5e/icons/esoteric/link-eerie-2.jpg": "icons/esoteric/control/energy-stream-link-large-teal.webp",
  "systems/n5e/icons/esoteric/link-eerie-3.jpg": "icons/esoteric/control/energy-stream-link-spiral-teal.webp",
  "systems/n5e/icons/esoteric/link-royal-1.jpg": "icons/esoteric/control/energy-stream-link-orange.webp",
  "systems/n5e/icons/esoteric/link-royal-2.jpg": "icons/esoteric/control/energy-stream-link-large-orange.webp",
  "systems/n5e/icons/esoteric/link-royal-3.jpg": "icons/esoteric/control/energy-stream-link-spiral-orange.webp",
  "systems/n5e/icons/esoteric/link-spirit-1.jpg": "icons/esoteric/control/energy-stream-link-white.webp",
  "systems/n5e/icons/esoteric/link-spirit-2.jpg": "icons/esoteric/control/energy-stream-link-large-white.webp",
  "systems/n5e/icons/esoteric/link-spirit-3.jpg": "icons/esoteric/control/energy-stream-link-spiral-white.webp",
  "systems/n5e/icons/esoteric/needles-acid-1.jpg": "icons/esoteric/acid/projectile-needles-salvo-green.webp",
  "systems/n5e/icons/esoteric/needles-acid-2.jpg": "icons/esoteric/acid/projectile-bolts-salvo-green.webp",
  "systems/n5e/icons/esoteric/needles-acid-3.jpg": "icons/esoteric/acid/projectile-beams-salvo-green.webp",
  "systems/n5e/icons/esoteric/needles-blue-1.jpg": "icons/esoteric/water/projectile-needles-salvo-blue.webp",
  "systems/n5e/icons/esoteric/needles-blue-2.jpg": "icons/esoteric/water/projectile-bolts-salvo-blue.webp",
  "systems/n5e/icons/esoteric/needles-blue-3.jpg": "icons/esoteric/water/projectile-beams-salvo-blue.webp",
  "systems/n5e/icons/esoteric/needles-fire-1.jpg": "icons/esoteric/fire/projectile-needles-salvo-red.webp",
  "systems/n5e/icons/esoteric/needles-fire-2.jpg": "icons/esoteric/fire/projectile-bolts-salvo-red.webp",
  "systems/n5e/icons/esoteric/needles-fire-3.jpg": "icons/esoteric/fire/projectile-beams-salvo-red.webp",
  "systems/n5e/icons/esoteric/needles-royal-1.jpg": "icons/esoteric/light/projectile-needles-salvo-yellow.webp",
  "systems/n5e/icons/esoteric/needles-royal-2.jpg": "icons/esoteric/light/projectile-bolts-salvo-yellow.webp",
  "systems/n5e/icons/esoteric/needles-royal-3.jpg": "icons/esoteric/light/projectile-beams-salvo-yellow.webp",
  "systems/n5e/icons/esoteric/needles-sky-1.jpg": "icons/esoteric/light/projectile-needles-salvo-white.webp",
  "systems/n5e/icons/esoteric/needles-sky-2.jpg": "icons/esoteric/light/projectile-bolts-salvo-white.webp",
  "systems/n5e/icons/esoteric/needles-sky-3.jpg": "icons/esoteric/light/projectile-beams-salvo-white.webp",
  "systems/n5e/icons/esoteric/protect-acid-1.jpg": "icons/esoteric/defensive/shield-barrier-glowing-triangle-green.webp",
  "systems/n5e/icons/esoteric/protect-acid-2.jpg": "icons/esoteric/defensive/shield-barrier-flaming-diamond-green.webp",
  "systems/n5e/icons/esoteric/protect-acid-3.jpg": "icons/esoteric/defensive/shield-barrier-flaming-pentagon-green.webp",
  "systems/n5e/icons/esoteric/protect-blue-1.jpg": "icons/esoteric/defensive/shield-barrier-glowing-triangle-blue.webp",
  "systems/n5e/icons/esoteric/protect-blue-2.jpg": "icons/esoteric/defensive/shield-barrier-flaming-diamond-blue.webp",
  "systems/n5e/icons/esoteric/protect-blue-3.jpg": "icons/esoteric/defensive/shield-barrier-flaming-pentagon-blue.webp",
  "systems/n5e/icons/esoteric/protect-eerie-1.jpg": "icons/esoteric/defensive/shield-barrier-glowing-triangle-teal-purple.webp",
  "systems/n5e/icons/esoteric/protect-eerie-2.jpg": "icons/esoteric/defensive/shield-barrier-flaming-diamond-teal-purple.webp",
  "systems/n5e/icons/esoteric/protect-eerie-3.jpg": "icons/esoteric/defensive/shield-barrier-flaming-pentagon-teal-purple.webp",
  "systems/n5e/icons/esoteric/protect-jade-1.jpg": "icons/esoteric/defensive/shield-barrier-glowing-triangle-teal.webp",
  "systems/n5e/icons/esoteric/protect-jade-2.jpg": "icons/esoteric/defensive/shield-barrier-flaming-diamond-teal.webp",
  "systems/n5e/icons/esoteric/protect-jade-3.jpg": "icons/esoteric/defensive/shield-barrier-flaming-pentagon-teal.webp",
  "systems/n5e/icons/esoteric/protect-magenta-1.jpg": "icons/esoteric/defensive/shield-barrier-glowing-triangle-magenta.webp",
  "systems/n5e/icons/esoteric/protect-magenta-2.jpg": "icons/esoteric/defensive/shield-barrier-flaming-diamond-magenta.webp",
  "systems/n5e/icons/esoteric/protect-magenta-3.jpg": "icons/esoteric/defensive/shield-barrier-flaming-pentagon-magenta.webp",
  "systems/n5e/icons/esoteric/protect-orange-1.jpg": "icons/esoteric/defensive/shield-barrier-glowing-triangle-orange.webp",
  "systems/n5e/icons/esoteric/protect-orange-2.jpg": "icons/esoteric/defensive/shield-barrier-flaming-diamond-orange.webp",
  "systems/n5e/icons/esoteric/protect-orange-3.jpg": "icons/esoteric/defensive/shield-barrier-flaming-pentagon-orange.webp",
  "systems/n5e/icons/esoteric/protect-red-1.jpg": "icons/esoteric/defensive/shield-barrier-glowing-triangle-red.webp",
  "systems/n5e/icons/esoteric/protect-red-2.jpg": "icons/esoteric/defensive/shield-barrier-flaming-diamond-red.webp",
  "systems/n5e/icons/esoteric/protect-red-3.jpg": "icons/esoteric/defensive/shield-barrier-flaming-pentagon-red.webp",
  "systems/n5e/icons/esoteric/protect-royal-1.jpg": "icons/esoteric/defensive/shield-barrier-glowing-triangle-purple-orange.webp",
  "systems/n5e/icons/esoteric/protect-royal-2.jpg": "icons/esoteric/defensive/shield-barrier-flaming-diamond-purple-orange.webp",
  "systems/n5e/icons/esoteric/protect-royal-3.jpg": "icons/esoteric/defensive/shield-barrier-flaming-pentagon-purple-orange.webp",
  "systems/n5e/icons/esoteric/protect-sky-1.jpg": "icons/esoteric/defensive/shield-barrier-glowing-triangle-blue-yellow.webp",
  "systems/n5e/icons/esoteric/protect-sky-2.jpg": "icons/esoteric/defensive/shield-barrier-flaming-diamond-blue-yellow.webp",
  "systems/n5e/icons/esoteric/protect-sky-3.jpg": "icons/esoteric/defensive/shield-barrier-flaming-pentagon-blue-yellow.webp",
  "systems/n5e/icons/esoteric/rip-acid-1.jpg": "icons/esoteric/unholy/strike-beam-blood-small-red-green.webp",
  "systems/n5e/icons/esoteric/rip-acid-2.jpg": "icons/esoteric/unholy/strike-beam-blood-red-green.webp",
  "systems/n5e/icons/esoteric/rip-acid-3.jpg": "icons/esoteric/unholy/strike-beam-blood-large-red-green.webp",
  "systems/n5e/icons/esoteric/rip-jade-1.jpg": "icons/esoteric/unholy/strike-beam-blood-small-red-teal.webp",
  "systems/n5e/icons/esoteric/rip-jade-2.jpg": "icons/esoteric/unholy/strike-beam-blood-red-teal.webp",
  "systems/n5e/icons/esoteric/rip-jade-3.jpg": "icons/esoteric/unholy/strike-beam-blood-large-red-teal.webp",
  "systems/n5e/icons/esoteric/rip-magenta-1.jpg": "icons/esoteric/unholy/strike-beam-blood-small-red-purple.webp",
  "systems/n5e/icons/esoteric/rip-magenta-2.jpg": "icons/esoteric/unholy/strike-beam-blood-red-purple.webp",
  "systems/n5e/icons/esoteric/rip-magenta-3.jpg": "icons/esoteric/unholy/strike-beam-blood-large-red-purple.webp",
  "systems/n5e/icons/esoteric/rip-sky-1.jpg": "icons/esoteric/unholy/strike-beam-blood-small-red-gray.webp",
  "systems/n5e/icons/esoteric/rip-sky-2.jpg": "icons/esoteric/unholy/strike-beam-blood-red-gray.webp",
  "systems/n5e/icons/esoteric/rip-sky-3.jpg": "icons/esoteric/unholy/strike-beam-blood-large-red-gray.webp",
  "systems/n5e/icons/esoteric/rip-water-1.jpg": "icons/esoteric/unholy/strike-beam-blood-small-red-blue.webp",
  "systems/n5e/icons/esoteric/rip-water-2.jpg": "icons/esoteric/unholy/strike-beam-blood-red-blue.webp",
  "systems/n5e/icons/esoteric/rip-water-3.jpg": "icons/esoteric/unholy/strike-beam-blood-large-red-blue.webp",
  "systems/n5e/icons/esoteric/rock-acid-1.jpg": "icons/esoteric/earth/projectile-stone-ball-green.webp",
  "systems/n5e/icons/esoteric/rock-acid-2.jpg": "icons/esoteric/earth/projectile-stone-boulder-green.webp",
  "systems/n5e/icons/esoteric/rock-acid-3.jpg": "icons/esoteric/earth/projectile-spiked-stone-boulder-green.webp",
  "systems/n5e/icons/esoteric/rock-orange-1.jpg": "icons/esoteric/earth/projectile-stone-ball-orange.webp",
  "systems/n5e/icons/esoteric/rock-orange-2.jpg": "icons/esoteric/earth/projectile-stone-boulder-orange.webp",
  "systems/n5e/icons/esoteric/rock-orange-3.jpg": "icons/esoteric/earth/projectile-spiked-stone-boulder-orange.webp",
  "systems/n5e/icons/esoteric/rock-plain-1.jpg": "icons/esoteric/earth/projectile-stone-ball-brown.webp",
  "systems/n5e/icons/esoteric/rock-plain-2.jpg": "icons/esoteric/earth/projectile-stone-boulder-brown.webp",
  "systems/n5e/icons/esoteric/rock-plain-3.jpg": "icons/esoteric/earth/projectile-spiked-stone-boulder-brown.webp",
  "systems/n5e/icons/esoteric/rock-royal-1.jpg": "icons/esoteric/earth/projectile-stone-ball-purple.webp",
  "systems/n5e/icons/esoteric/rock-royal-2.jpg": "icons/esoteric/earth/projectile-stone-boulder-purple.webp",
  "systems/n5e/icons/esoteric/rock-royal-3.jpg": "icons/esoteric/earth/projectile-spiked-stone-boulder-purple-yellow.webp",
  "systems/n5e/icons/esoteric/rock-sky-1.jpg": "icons/esoteric/earth/projectile-stone-ball-blue.webp",
  "systems/n5e/icons/esoteric/rock-sky-2.jpg": "icons/esoteric/earth/projectile-stone-boulder-blue.webp",
  "systems/n5e/icons/esoteric/rock-sky-3.jpg": "icons/esoteric/earth/projectile-spiked-stone-boulder-blue.webp",
  "systems/n5e/icons/esoteric/runes-blue-1.jpg": "icons/esoteric/symbols/runes-triangle-blue.webp",
  "systems/n5e/icons/esoteric/runes-blue-2.jpg": "icons/esoteric/symbols/runes-star-blue.webp",
  "systems/n5e/icons/esoteric/runes-blue-3.jpg": "icons/esoteric/symbols/runes-star-pentagon-blue.webp",
  "systems/n5e/icons/esoteric/runes-magenta-1.jpg": "icons/esoteric/symbols/runes-triangle-magenta.webp",
  "systems/n5e/icons/esoteric/runes-magenta-2.jpg": "icons/esoteric/symbols/runes-star-magenta.webp",
  "systems/n5e/icons/esoteric/runes-magenta-3.jpg": "icons/esoteric/symbols/runes-star-pentagon-magenta.webp",
  "systems/n5e/icons/esoteric/runes-orange-1.jpg": "icons/esoteric/symbols/runes-triangle-orange.webp",
  "systems/n5e/icons/esoteric/runes-orange-2.jpg": "icons/esoteric/symbols/runes-star-orange.webp",
  "systems/n5e/icons/esoteric/runes-orange-3.jpg": "icons/esoteric/symbols/runes-star-pentagon-orange.webp",
  "systems/n5e/icons/esoteric/runes-royal-1.jpg": "icons/esoteric/symbols/runes-triangle-orange-purple.webp",
  "systems/n5e/icons/esoteric/runes-royal-2.jpg": "icons/esoteric/symbols/runes-star-orange-purple.webp",
  "systems/n5e/icons/esoteric/runes-royal-3.jpg": "icons/esoteric/symbols/runes-star-pentagon-orange-purple.webp",
  "systems/n5e/icons/esoteric/shielding-acid-1.jpg": "icons/esoteric/control/debuff-chains-green.webp",
  "systems/n5e/icons/esoteric/shielding-acid-2.jpg": "icons/esoteric/control/debuff-chains-ropes-green.webp",
  "systems/n5e/icons/esoteric/shielding-acid-3.jpg": "icons/esoteric/control/debuff-chains-ropes-net-green.webp",
  "systems/n5e/icons/esoteric/shielding-eerie-1.jpg": "icons/esoteric/control/debuff-chains-purple.webp",
  "systems/n5e/icons/esoteric/shielding-eerie-2.jpg": "icons/esoteric/control/debuff-chains-ropes-purple.webp",
  "systems/n5e/icons/esoteric/shielding-eerie-3.jpg": "icons/esoteric/control/debuff-chains-ropes-net-purple-blue.webp",
  "systems/n5e/icons/esoteric/shielding-fire-1.jpg": "icons/esoteric/control/debuff-chains-red.webp",
  "systems/n5e/icons/esoteric/shielding-fire-2.jpg": "icons/esoteric/control/debuff-chains-ropes-red.webp",
  "systems/n5e/icons/esoteric/shielding-fire-3.jpg": "icons/esoteric/control/debuff-chains-ropes-net-red-orange.webp",
  "systems/n5e/icons/esoteric/shielding-spirit-1.jpg": "icons/esoteric/control/debuff-chains-blue.webp",
  "systems/n5e/icons/esoteric/shielding-spirit-2.jpg": "icons/esoteric/control/debuff-chains-ropes-blue.webp",
  "systems/n5e/icons/esoteric/shielding-spirit-3.jpg": "icons/esoteric/control/debuff-chains-ropes-net-white.webp",
  "systems/n5e/icons/esoteric/slice-acid-1.jpg": "icons/skills/melee/strike-blade-scimitar-green-purple.webp",
  "systems/n5e/icons/esoteric/slice-acid-2.jpg": "icons/skills/melee/strike-blade-knife-green-purple.webp",
  "systems/n5e/icons/esoteric/slice-acid-3.jpg": "icons/skills/melee/strike-blade-hooked-green-purple.webp",
  "systems/n5e/icons/esoteric/slice-orange-1.jpg": "icons/skills/melee/strike-blade-scimitar-orange-blue.webp",
  "systems/n5e/icons/esoteric/slice-orange-2.jpg": "icons/skills/melee/strike-blade-knife-orange-blue.webp",
  "systems/n5e/icons/esoteric/slice-orange-3.jpg": "icons/skills/melee/strike-blade-hooked-orange-blue.webp",
  "systems/n5e/icons/esoteric/slice-sky-1.jpg": "icons/skills/melee/strike-blade-scimitar-blue-red.webp",
  "systems/n5e/icons/esoteric/slice-sky-2.jpg": "icons/skills/melee/strike-blade-knife-blue-red.webp",
  "systems/n5e/icons/esoteric/slice-sky-3.jpg": "icons/skills/melee/strike-blade-hooked-blue-red.webp",
  "systems/n5e/icons/esoteric/slice-spirit-1.jpg": "icons/skills/melee/strike-blade-scimitar-gray-red.webp",
  "systems/n5e/icons/esoteric/slice-spirit-2.jpg": "icons/skills/melee/strike-blade-knife-white-red.webp",
  "systems/n5e/icons/esoteric/slice-spirit-3.jpg": "icons/skills/melee/strike-blade-hooked-white-red.webp",
  "systems/n5e/icons/esoteric/vines-acid-1.jpg": "icons/esoteric/nature/vines-thorned-glow-green.webp",
  "systems/n5e/icons/esoteric/vines-acid-2.jpg": "icons/esoteric/nature/vines-thorned-curled-glow-green.webp",
  "systems/n5e/icons/esoteric/vines-acid-3.jpg": "icons/esoteric/nature/vines-thorned-entwined-glow-green.webp",
  "systems/n5e/icons/esoteric/vines-eerie-1.jpg": "icons/esoteric/nature/vines-thorned-glow-teal-purple.webp",
  "systems/n5e/icons/esoteric/vines-eerie-2.jpg": "icons/esoteric/nature/vines-thorned-curled-glow-teal-purple.webp",
  "systems/n5e/icons/esoteric/vines-eerie-3.jpg": "icons/esoteric/nature/vines-thorned-entwined-glow-teal-purple.webp",
  "systems/n5e/icons/esoteric/vines-jade-1.jpg": "icons/esoteric/nature/vines-thorned-glow-teal.webp",
  "systems/n5e/icons/esoteric/vines-jade-2.jpg": "icons/esoteric/nature/vines-thorned-curled-glow-teal.webp",
  "systems/n5e/icons/esoteric/vines-jade-3.jpg": "icons/esoteric/nature/vines-thorned-entwined-glow-teal.webp",
  "systems/n5e/icons/esoteric/vines-plain-1.jpg": "icons/esoteric/nature/vines-thorned-green.webp",
  "systems/n5e/icons/esoteric/vines-plain-2.jpg": "icons/esoteric/nature/vines-thorned-curled-green.webp",
  "systems/n5e/icons/esoteric/vines-plain-3.jpg": "icons/esoteric/nature/vines-thorned-entwined-green.webp",
  "systems/n5e/icons/esoteric/wild-acid-1.jpg": "icons/esoteric/nature/wolf-paw-glow-small-green.webp",
  "systems/n5e/icons/esoteric/wild-acid-2.jpg": "icons/esoteric/nature/wolf-paw-glow-green.webp",
  "systems/n5e/icons/esoteric/wild-acid-3.jpg": "icons/esoteric/nature/wolf-paw-glow-large-green.webp",
  "systems/n5e/icons/esoteric/wild-eerie-1.jpg": "icons/esoteric/nature/wolf-paw-glow-small-purple-teal.webp",
  "systems/n5e/icons/esoteric/wild-eerie-2.jpg": "icons/esoteric/nature/wolf-paw-glow-purple-teal.webp",
  "systems/n5e/icons/esoteric/wild-eerie-3.jpg": "icons/esoteric/nature/wolf-paw-glow-large-purple-teal.webp",
  "systems/n5e/icons/esoteric/wild-jade-1.jpg": "icons/esoteric/nature/wolf-paw-glow-small-teal-blue.webp",
  "systems/n5e/icons/esoteric/wild-jade-2.jpg": "icons/esoteric/nature/wolf-paw-glow-teal-blue.webp",
  "systems/n5e/icons/esoteric/wild-jade-3.jpg": "icons/esoteric/nature/wolf-paw-glow-large-teal-blue.webp",
  "systems/n5e/icons/esoteric/wild-orange-1.jpg": "icons/esoteric/nature/wolf-paw-glow-small-orange.webp",
  "systems/n5e/icons/esoteric/wild-orange-2.jpg": "icons/esoteric/nature/wolf-paw-glow-orange.webp",
  "systems/n5e/icons/esoteric/wild-orange-3.jpg": "icons/esoteric/nature/wolf-paw-glow-large-orange.webp",
  "systems/n5e/icons/esoteric/wind-blue-1.jpg": "icons/esoteric/air/wind-stream-purple-blue.webp",
  "systems/n5e/icons/esoteric/wind-blue-2.jpg": "icons/esoteric/air/wind-swirl-purple-blue.webp",
  "systems/n5e/icons/esoteric/wind-blue-3.jpg": "icons/esoteric/air/wind-tornado-cyclone-purple-blue.webp",
  "systems/n5e/icons/esoteric/wind-grasp-acid-1.jpg": "icons/esoteric/control/debuff-energy-snare-green.webp",
  "systems/n5e/icons/esoteric/wind-grasp-acid-2.jpg": "icons/esoteric/control/debuff-energy-hold-green.webp",
  "systems/n5e/icons/esoteric/wind-grasp-acid-3.jpg": "icons/esoteric/control/debuff-energy-hold-levitate-green.webp",
  "systems/n5e/icons/esoteric/wind-grasp-air-1.jpg": "icons/esoteric/control/debuff-energy-snare-brown.webp",
  "systems/n5e/icons/esoteric/wind-grasp-air-2.jpg": "icons/esoteric/control/debuff-energy-hold-yellow.webp",
  "systems/n5e/icons/esoteric/wind-grasp-air-3.jpg": "icons/esoteric/control/debuff-energy-hold-levitate-yellow.webp",
  "systems/n5e/icons/esoteric/wind-grasp-eerie-1.jpg": "icons/esoteric/control/debuff-energy-snare-purple-blue.webp",
  "systems/n5e/icons/esoteric/wind-grasp-eerie-2.jpg": "icons/esoteric/control/debuff-energy-hold-teal-blue.webp",
  "systems/n5e/icons/esoteric/wind-grasp-eerie-3.jpg": "icons/esoteric/control/debuff-energy-hold-levitate-teal-blue.webp",
  "systems/n5e/icons/esoteric/wind-grasp-magenta-1.jpg": "icons/esoteric/control/debuff-energy-hold-pink.webp",
  "systems/n5e/icons/esoteric/wind-grasp-magenta-2.jpg": "icons/esoteric/control/debuff-energy-hold-levitate-pink.webp",
  "systems/n5e/icons/esoteric/wind-grasp-magenta-3.jpg": "icons/esoteric/control/debuff-energy-snare-purple-pink.webp",
  "systems/n5e/icons/esoteric/wind-grasp-sky-1.jpg": "icons/esoteric/control/debuff-energy-snare-blue.webp",
  "systems/n5e/icons/esoteric/wind-grasp-sky-2.jpg": "icons/esoteric/control/debuff-energy-hold-blue-yellow.webp",
  "systems/n5e/icons/esoteric/wind-grasp-sky-3.jpg": "icons/esoteric/control/debuff-energy-hold-levitate-blue-yellow.webp",
  "systems/n5e/icons/esoteric/wind-magenta-1.jpg": "icons/esoteric/air/wind-stream-purple.webp",
  "systems/n5e/icons/esoteric/wind-magenta-2.jpg": "icons/esoteric/air/wind-swirl-pink-purple.webp",
  "systems/n5e/icons/esoteric/wind-magenta-3.jpg": "icons/esoteric/air/wind-tornado-cyclone-purple-pink.webp",
  "systems/n5e/icons/esoteric/wind-red-1.jpg": "icons/esoteric/air/wind-stream-red.webp",
  "systems/n5e/icons/esoteric/wind-red-2.jpg": "icons/esoteric/air/wind-swirl-red-orange.webp",
  "systems/n5e/icons/esoteric/wind-red-3.jpg": "icons/esoteric/air/wind-tornado-cyclone-red-orange.webp",
  "systems/n5e/icons/esoteric/wind-sky-1.jpg": "icons/esoteric/air/wind-stream-blue-gray.webp",
  "systems/n5e/icons/esoteric/wind-sky-2.jpg": "icons/esoteric/air/wind-swirl-gray-blue.webp",
  "systems/n5e/icons/esoteric/wind-sky-3.jpg": "icons/esoteric/air/wind-tornado-cyclone-white.webp",
  "icons/esoteric/air/air-burst-spiral-teal-large-green.webp": "icons/esoteric/air/air-burst-spiral-large-teal-green.webp",
  "icons/esoteric/air/fog-gas-smoke-dense-purple.webp": "icons/esoteric/air/fog-gas-smoke-dense-pink.webp",
  "icons/esoteric/air/fog-gas-smoke-dense-purple-blue.webp": "icons/esoteric/air/fog-gas-smoke-dense-blue.webp",
  "icons/esoteric/air/fog-gas-smoke-blue-dense-white.webp": "icons/esoteric/air/fog-gas-smoke-dense-white.webp",
  "icons/esoteric/defensive/shield-barrier-glowing-triangle-orange-purple.webp": "icons/esoteric/defensive/shield-barrier-glowing-triangle-purple-orange.webp",
  "icons/esoteric/defensive/shield-barrier-flaming-diamond-orange-purple.webp": "icons/esoteric/defensive/shield-barrier-flaming-diamond-purple-orange.webp",
  "icons/esoteric/defensive/shield-barrier-flaming-pentagon-orange-purple.webp": "icons/esoteric/defensive/shield-barrier-flaming-pentagon-purple-orange.webp",
  "icons/esoteric/light/beam-rays-orange-purple-small.webp": "icons/esoteric/light/beams-rays-orange-purple-small.webp",
  "icons/esoteric/light/beam-rays-orange-purple.webp": "icons/esoteric/light/beams-rays-orange-purple.webp",
  "icons/esoteric/light/beam-rays-orange-purple-large.webp": "icons/esoteric/light/beams-rays-orange-purple-large.webp",
  "icons/esoteric/light/explosion-star-large-blue.webp": "icons/esoteric/light/explosion-star-blue-large.webp",
  "icons/esoteric/light/explosion-star-small-blue.webp": "icons/esoteric/light/explosion-star-blue-small.webp",
  "icons/esoteric/light/explosion-star-blue-yellow-large.webp": "icons/esoteric/light/explosion-star-large-blue-yellow.webp",
  "icons/esoteric/light/explosion-star-blue-yellow-small.webp": "icons/esoteric/light/explosion-star-small-blue-yellow.webp",
  "icons/esoteric/light/explosion-star-teal-large.webp": "icons/esoteric/light/explosion-star-large-teal.webp",
  "icons/esoteric/light/explosion-star-teal-small.webp": "icons/esoteric/light/explosion-star-small-teal.webp",
  "icons/esoteric/light/explosion-star-teal-purple-large.webp": "icons/esoteric/light/explosion-star-large-teal-purple.webp",
  "icons/esoteric/light/explosion-star-teal-purple-small.webp": "icons/esoteric/light/explosion-star-small-teal-purple.webp",
  "icons/esoteric/light/explosion-star-orange-large.webp": "icons/esoteric/light/explosion-star-large-orange.webp",
  "icons/esoteric/light/explosion-star-orange-small.webp": "icons/esoteric/light/explosion-star-small-orange.webp",
  "icons/esoteric/light/explosion-star-orange-purple-large.webp": "icons/esoteric/light/explosion-star-large-orange-purple.webp",
  "icons/esoteric/light/explosion-star-orange-purple-small.webp": "icons/esoteric/light/explosion-star-small-orange-purple.webp",
  "icons/esoteric/light/explosion-star-pink-large.webp": "icons/esoteric/light/explosion-star-large-pink.webp",
  "icons/esoteric/light/explosion-star-pink-small.webp": "icons/esoteric/light/explosion-star-small-pink.webp",
  "icons/esoteric/lightning/bolt-forked-teal-large-purple.webp": "icons/esoteric/lightning/bolt-forked-large-teal-purple.webp",
  "icons/esoteric/unholy/strike-beam-blood-red-teal-blue.webp": "icons/esoteric/unholy/strike-beam-blood-red-teal.webp",
  "icons/skills/melee/strike-blade-scimitar-white-red.webp": "icons/skills/melee/strike-blade-scimitar-gray-red.webp",
  "icons/weapons/guns/arrowhead-glowing-blue.webp": "icons/weapons/ammunition/arrowhead-glowing-blue.webp"
}